{
  "request": {
    "urlPath": "/api/bulk/2.0/contacts/fields",
    "method": "GET",
    "basicAuthCredentials": {
      "username": "TD\\username",
      "password": "password"
    },
    "queryParameters": {
      "limit": {
        "equalTo": "2"
      }
    }
  },
  "response": {
    "status": 200,
    "jsonBody": {
      "items": [
        {
          "name": "Email Address",
          "internalName": "C_EmailAddress",
          "dataType": "emailAddress",
          "hasReadOnlyConstraint": false,
          "hasNotNullConstraint": false,
          "hasUniquenessConstraint": true,
          "statement": "{{Contact.Field(C_EmailAddress)}}",
          "uri": "/contacts/fields/100001",
          "createdAt": "1900-01-01T05:00:00.0000000Z",
          "updatedAt": "1900-01-01T05:00:00.0000000Z"
        },
        {
          "name": "First Name",
          "internalName": "C_FirstName",
          "dataType": "string",
          "hasReadOnlyConstraint": false,
          "hasNotNullConstraint": false,
          "hasUniquenessConstraint": false,
          "statement": "{{Contact.Field(C_FirstName)}}",
          "uri": "/contacts/fields/100002",
          "createdAt": "1900-01-01T05:00:00.0000000Z",
          "updatedBy": "MgrPlatformTeamPod1",
          "updatedAt": "2014-06-16T14:43:50.8100000Z"
        }
      ],
      "totalResults": 62,
      "limit": 2,
      "offset": 0,
      "count": 2,
      "hasMore": true
    },
    "headers": {
      "Content-Type": "application/json"
    }
  }
}