{
  "request": {
    "url": "/api/bulk/2.0/syncs/52522/data?limit=2&offset=0",
    "method": "GET",
    "basicAuthCredentials": {
      "username": "TD\\username",
      "password": "password"
    }
  },
  "response": {
    "status": 200,
    "jsonBody": {
      "Count": 2,
      "hasMore": true,
      "limit": 2,
      "offset": 0,
      "totalResults": 3,
      "items": [
        {
          "activity_id": "997",
          "activity_type": "FormSubmit",
          "activity_date": "2018-05-07T01:00:00Z",
          "email_address": "allison@example.com",
          "contact_id": "123",
          "visitor_id": "1",
          "visitor_external_id": "8c25d41f-6142-4215-8134-4cd311fe2b08",
          "asset_type": "Form",
          "asset_id": "1",
          "asset_name": "Forms-BulkActivity",
          "raw_data": "raw 1",
          "campaign_id": "1",
          "external_id": "1"
        },
        {
          "activity_id": "998",
          "activity_type": "FormSubmit",
          "activity_date": "2018-05-07T02:00:00Z",
          "email_address": "allison@example.com",
          "contact_id": "123",
          "visitor_id": "1",
          "visitor_external_id": "8c25d41f-6142-4215-8134-4cd311fe2b08",
          "asset_type": "Form",
          "asset_id": "2",
          "asset_name": "Forms-BulkActivity",
          "raw_data": "raw 2",
          "campaign_id": "2",
          "external_id": "2"
        }
      ]
    },
    "headers": {
      "Content-Type": "application/json"
    }
  }
}
